<?xml version="1.0" encoding="utf-8"?>
<!-- Generator: Adobe Illustrator 14.0.0, SVG Export Plug-In . SVG Version: 6.00 Build 43363)  -->
<!DOCTYPE svg PUBLIC "-//W3C//DTD SVG 1.1//EN" "http://www.w3.org/Graphics/SVG/1.1/DTD/svg11.dtd">
<svg version="1.1" xmlns="http://www.w3.org/2000/svg" xmlns:xlink="http://www.w3.org/1999/xlink" x="0px" y="0px"
	  viewBox="0 0 1137.1 1048.1" xml:space="preserve">
<g id="Layer_1">
	<linearGradient id="SVGID_3_" gradientUnits="userSpaceOnUse" x1="571.4741" y1="1053.126" x2="571.4741" y2="1247.126">
		<stop  offset="0" style="stop-color:#323F49"/>
		<stop  offset="1" style="stop-color:#323F49"/>
	</linearGradient>
	<rect x="560.1" y="1053.1" fill="url(#SVGID_3_)" width="22.7" height="194"/>
	<defs>
		<filter id="Adobe_OpacityMaskFilter" filterUnits="userSpaceOnUse" x="39.4" y="568.2" width="1064.7" height="490">
			<feFlood  style="flood-color:white;flood-opacity:1" result="back"/>
			<feBlend  in="SourceGraphic" in2="back" mode="normal"/>
		</filter>
	</defs>
	<mask maskUnits="userSpaceOnUse" x="39.4" y="568.2" width="1064.7" height="490" id="SVGID_4_">
		<g filter="url(#Adobe_OpacityMaskFilter)">
			<defs>
				<filter id="Adobe_OpacityMaskFilter_1_" filterUnits="userSpaceOnUse" x="39.4" y="568.2" width="1064.7" height="490">
					<feFlood  style="flood-color:white;flood-opacity:1" result="back"/>
					<feBlend  in="SourceGraphic" in2="back" mode="normal"/>
				</filter>
			</defs>
			<mask maskUnits="userSpaceOnUse" x="39.4" y="568.2" width="1064.7" height="490" id="SVGID_4_">
				<g filter="url(#Adobe_OpacityMaskFilter_1_)">
				</g>
			</mask>
			<linearGradient id="SVGID_5_" gradientUnits="userSpaceOnUse" x1="571.7075" y1="568.2041" x2="571.7075" y2="1058.2036">
				<stop  offset="0" style="stop-color:#000000"/>
				<stop  offset="1" style="stop-color:#FFFFFF"/>
			</linearGradient>
			<rect x="39.4" y="568.2" mask="url(#SVGID_4_)" fill="url(#SVGID_5_)" width="1064.7" height="490"/>
		</g>
	</mask>
	<linearGradient id="SVGID_6_" gradientUnits="userSpaceOnUse" x1="571.7075" y1="568.2041" x2="571.7075" y2="1058.2036">
		<stop  offset="0" style="stop-color:#323F49"/>
		<stop  offset="1" style="stop-color:#323F49"/>
	</linearGradient>
	<rect x="39.4" y="568.2" fill="url(#SVGID_6_)" width="1064.7" height="490"/>
	<g opacity="0.5">
		<g>
			<path fill="none" stroke="#FFFFFF" stroke-miterlimit="10" d="M539.5,543.3l1.8,0.8c0.2-0.6,0.5-1.2,0.7-1.8"/>
			<path fill="none" stroke="#FFFFFF" stroke-miterlimit="10" stroke-dasharray="6.2541,4.1694" d="M543.2,539.8
				c3-5.6,7.6-10.2,13.2-13.2"/>
			<path fill="none" stroke="#FFFFFF" stroke-miterlimit="10" d="M557.7,525.9c0.6-0.3,1.2-0.6,1.8-0.8l0,0l-0.7-1.8"/>
			<path fill="none" stroke="#FFFFFF" stroke-miterlimit="10" d="M400.3,141l-0.7-1.8c-0.6,0.2-1.2,0.5-1.8,0.7"/>
			<path fill="none" stroke="#FFFFFF" stroke-miterlimit="10" stroke-dasharray="6.0116,4.0078" d="M395.4,141
				c-26.7,11.3-52.2,25.3-76.5,41.7c-48.2,32.7-89,73.9-121.4,122.4c-15.6,23.3-28.8,47.8-39.7,73.3"/>
			<path fill="none" stroke="#FFFFFF" stroke-miterlimit="10" d="M157.2,379.6c-0.3,0.6-0.5,1.2-0.8,1.8l1.8,0.8"/>
			
				<line fill="none" stroke="#FFFFFF" stroke-miterlimit="10" stroke-dasharray="6.0208,4.0139" x1="160.7" y1="383.1" x2="538.3" y2="542.8"/>
		</g>
	</g>
	<g>
		<g opacity="0.5">
			<g>
				<path fill="none" stroke="#FFFFFF" stroke-miterlimit="10" d="M744.5,141.4l0.8-1.8c-0.6-0.2-1.2-0.5-1.8-0.7"/>
				<path fill="none" stroke="#FFFFFF" stroke-miterlimit="10" stroke-dasharray="5.9456,3.9638" d="M741,137.9
					c-24.1-9.4-53.2-18.4-78.3-23.6c-29.9-6.2-60.4-9.3-90.8-9.3c-29.3,0-59,2.9-88.1,8.7c-28,5.6-55.2,13.7-81.3,24.3"/>
				<path fill="none" stroke="#FFFFFF" stroke-miterlimit="10" d="M401.4,138.5c-0.6,0.2-1.2,0.5-1.8,0.7l0.7,1.8"/>
				<path fill="none" stroke="#FFFFFF" stroke-miterlimit="10" d="M558.7,523.3l0.7,1.8l0,0c0.6-0.2,1.2-0.5,1.8-0.7"/>
				<path fill="none" stroke="#FFFFFF" stroke-miterlimit="10" stroke-dasharray="5.8697,3.9131" d="M563.7,523.7
					c2.6-0.7,5.4-1,8.2-1c3.3,0,6.4,0.5,9.4,1.4"/>
				<path fill="none" stroke="#FFFFFF" stroke-miterlimit="10" d="M582.5,524.4c0.6,0.2,1.2,0.4,1.8,0.7l0.8-1.8"/>
				
					<line fill="none" stroke="#FFFFFF" stroke-miterlimit="10" stroke-dasharray="6.0198,4.0132" x1="586.1" y1="520.9" x2="744" y2="142.6"/>
			</g>
		</g>
	</g>
	
		<rect x="323" y="667.2" transform="matrix(0.7071 -0.7071 0.7071 0.7071 -340.3298 519.2562)" fill="#323F49" width="267.4" height="6.5"/>
	
		<rect x="553.4" y="667.3" transform="matrix(-0.7071 -0.7071 0.7071 -0.7071 698.7986 1630.5278)" fill="#323F49" width="267.4" height="6.5"/>
	<g>
		<path fill="#323F49" d="M605.2,568.1c-3.7,16.9-14.2,29.7-27.2,32.1v647.2h536V568.1H605.2z"/>
	</g>
	<g opacity="0.5">
		<g>
			<path fill="none" stroke="#FFFFFF" stroke-miterlimit="10" d="M586.6,526.6c-0.6-0.3-1.2-0.6-1.8-0.8l0,0l0.7-1.8"/>
			<path fill="none" stroke="#FFFFFF" stroke-miterlimit="10" d="M743.9,141.7l0.7-1.8c0.6,0.2,1.2,0.5,1.8,0.7"/>
			<path fill="none" stroke="#FFFFFF" stroke-miterlimit="10" stroke-dasharray="5.9655,3.977" d="M748.9,141.6
				c26.7,11.3,52.2,25.3,76.5,41.7c48.2,32.7,89,73.9,121.4,122.4c32.4,48.5,54.8,102,66.6,159c6,29.1,9.1,58.4,9.3,87.8"/>
			<path fill="none" stroke="#FFFFFF" stroke-miterlimit="10" d="M1022.7,553.9c0,0.6,0,1.3,0,2h-2"/>
			
				<line fill="none" stroke="#FFFFFF" stroke-miterlimit="10" stroke-dasharray="6.0204,4.0136" x1="1018.1" y1="555.8" x2="608.2" y2="555.8"/>
			<path fill="none" stroke="#FFFFFF" stroke-miterlimit="10" d="M606.9,555.8h-2c0-0.7,0-1.3-0.1-2"/>
			<path fill="none" stroke="#FFFFFF" stroke-miterlimit="10" stroke-dasharray="5.8767,3.9178" d="M604.6,551.3
				c-1.5-10.5-7.9-19.4-16.9-24.2"/>
		</g>
	</g>
	<circle fill="#323F49" cx="571.9" cy="555.2" r="32.5"/>
	<g>
		<path fill="#FFFFFF" d="M561.6,559.6l-2.7-4.1h-2.1v4.1h-1.3v-10.4h4.2c1.9,0,3.3,1.2,3.3,3.1c0,1.9-1.3,2.9-2.7,3l2.8,4.2H561.6z
			 M561.6,552.3c0-1.2-0.8-2-2.1-2h-2.7v4h2.7C560.8,554.3,561.6,553.5,561.6,552.3z"/>
		<path fill="#FFFFFF" d="M564.8,558.9c0-0.5,0.4-0.9,0.9-0.9c0.5,0,0.9,0.4,0.9,0.9c0,0.5-0.4,0.9-0.9,0.9
			C565.2,559.7,564.8,559.3,564.8,558.9z"/>
		<path fill="#FFFFFF" d="M567.7,554.4c0-3.1,2.1-5.4,5.2-5.4c3.1,0,5.2,2.3,5.2,5.4c0,3.1-2.1,5.4-5.2,5.4
			C569.8,559.8,567.7,557.5,567.7,554.4z M576.7,554.4c0-2.4-1.5-4.2-3.8-4.2c-2.3,0-3.8,1.8-3.8,4.2c0,2.4,1.5,4.2,3.8,4.2
			C575.2,558.6,576.7,556.8,576.7,554.4z"/>
		<path fill="#FFFFFF" d="M579.3,558.9c0-0.5,0.4-0.9,0.9-0.9s0.9,0.4,0.9,0.9c0,0.5-0.4,0.9-0.9,0.9S579.3,559.3,579.3,558.9z"/>
		<path fill="#FFFFFF" d="M583.2,559.6v-10.4h1.3v10.4H583.2z"/>
		<path fill="#FFFFFF" d="M586.8,558.9c0-0.5,0.4-0.9,0.9-0.9c0.5,0,0.9,0.4,0.9,0.9c0,0.5-0.4,0.9-0.9,0.9
			C587.2,559.7,586.8,559.3,586.8,558.9z"/>
	</g>
	<g>
		<path fill="#323F49" d="M538.4,568.1H28.4v679.3h537V600.1C552.5,597.6,542.1,584.8,538.4,568.1z"/>
	</g>
	<defs>
		<filter id="Adobe_OpacityMaskFilter_2_" filterUnits="userSpaceOnUse" x="28.2" y="522.2" width="1086" height="725.2">
			<feColorMatrix  type="matrix" values="1 0 0 0 0  0 1 0 0 0  0 0 1 0 0  0 0 0 1 0"/>
		</filter>
	</defs>
	<mask maskUnits="userSpaceOnUse" x="28.2" y="522.2" width="1086" height="725.2" id="SVGID_7_">
		<g filter="url(#Adobe_OpacityMaskFilter_2_)">
			<linearGradient id="SVGID_8_" gradientUnits="userSpaceOnUse" x1="571.7075" y1="516.1553" x2="571.7075" y2="1314.5474">
				<stop  offset="0" style="stop-color:#FFFFFF"/>
				<stop  offset="1" style="stop-color:#000000"/>
			</linearGradient>
			<polyline fill="url(#SVGID_8_)" points="-174.6,1314.5 -174.6,516.2 1318,516.2 1318,1314.5 			"/>
		</g>
	</mask>
	<g mask="url(#SVGID_7_)">
		<path opacity="0.5" fill="none" stroke="#FFFFFF" stroke-miterlimit="10" d="M1114.2,568.2H615.5c-1.9,6.3-5.1,12-9.3,16.8
			l-9.2-9.2c4.6-5.6,7.4-12.8,7.4-20.7c0-18-14.6-32.5-32.5-32.5c-18,0-32.5,14.6-32.5,32.5c0,7.8,2.8,15,7.4,20.6l-9.2,9.2
			c-4.2-4.8-7.4-10.5-9.3-16.8h-500"/>
		<path opacity="0.5" fill="none" stroke="#FFFFFF" stroke-miterlimit="10" d="M565.4,1247.4V600.1c-8.8-1.3-16.8-5.1-23.3-10.7
			l9.2-9.2c5.6,4.6,12.8,7.3,20.6,7.3c7.8,0,14.9-2.7,20.5-7.3l9.2,9.2c-6.5,5.6-14.6,9.5-23.6,10.7v647.2"/>
	</g>
	<g opacity="0.5">
		<g>
			<path fill="none" stroke="#FFFFFF" stroke-miterlimit="10" d="M158.1,382.5l-1.8-0.8c-0.3,0.6-0.5,1.2-0.7,1.8"/>
			<path fill="none" stroke="#FFFFFF" stroke-miterlimit="10" stroke-dasharray="6.0844,4.0563" d="M154.6,385.9
				c-10.2,25.2-18.2,51.3-23.7,78.2c-6,29.1-9.1,58.4-9.3,87.8"/>
			<path fill="none" stroke="#FFFFFF" stroke-miterlimit="10" d="M121.6,553.2c0,0.7,0,1.3,0,2h2"/>
			
				<line fill="none" stroke="#FFFFFF" stroke-miterlimit="10" stroke-dasharray="6.0204,4.0136" x1="126.1" y1="555.2" x2="536.1" y2="555.2"/>
			<path fill="none" stroke="#FFFFFF" stroke-miterlimit="10" d="M537.4,555.2h2c0-0.7,0-1.3,0.1-2"/>
			<path fill="none" stroke="#FFFFFF" stroke-miterlimit="10" stroke-dasharray="4.9394,3.2929" d="M539.6,551.1
				c0.2-1.4,0.5-2.8,0.8-4.2"/>
			<path fill="none" stroke="#FFFFFF" stroke-miterlimit="10" d="M540.7,545.8c0.2-0.6,0.4-1.2,0.6-1.9l-1.8-0.8"/>
		</g>
	</g>
			<g class="opac lead-generation opportunity-sizing performance-assessment channel-optimisation digital-strategy measuring-effectiveness consumer-experience agility digital online-offline demonstrate-outcome data-synchronicity flexible-approach">
				<path fill="#FFFFFF" d="M633.4,254.4"/>
				<path fill="#9BB8D5" d="M649.1,175.5l-1.3,6.6c21.8,4.3,36,25.6,31.6,47.3c-3.7,18.4-19.3,31.3-37.2,32.3l-1.3,6.8
					c21.6-0.4,40.8-15.8,45.1-37.8C691,205.3,674.5,180.5,649.1,175.5z"/>
				<path fill="#9BB8D5" d="M622.4,257.8c-16.1-7.8-25.7-25.8-22-44.1c4.3-21.8,25.6-36,47.3-31.6l1.3-6.6
					c-25.4-5.1-50.2,11.5-55.2,36.9c-4.4,22,7.5,43.5,27.2,52.2L622.4,257.8z"/>
							<path fill="#9AB7D5" d="M639.9,198L639.9,198c1.5,0,3.1,0.2,4.6,0.5c6.2,1.2,11.5,4.8,15,10c3.5,5.2,4.7,11.5,3.5,17.7
								c-2.2,11-11.9,19-23.1,19c-1.5,0-3.1-0.2-4.6-0.5c-12.7-2.5-21-15-18.5-27.7C619,206,628.7,198,639.9,198 M639.9,188
								c-15.7,0-29.7,11-32.9,27c-3.6,18.2,8.2,35.8,26.4,39.4c2.2,0.4,4.4,0.7,6.6,0.7c15.7,0,29.7-11,32.9-27
								c3.6-18.2-8.2-35.8-26.4-39.4C644.2,188.2,642,188,639.9,188L639.9,188z"/>
					
						<text transform="matrix(0.9808 0.1951 -0.1951 0.9808 619.0542 219.5361)" display="none" fill="#323F49" font-family="'ProximaNova-Regular'" font-size="7.3794">Attribution</text>
			
				<rect x="468.6" y="385.7" transform="matrix(-0.1951 0.9808 -0.9808 -0.1951 1106.3105 -129.8768)" fill="#9AB7D5" width="275.7" height="6.7"/>
			<line fill="none" x1="580.2" y1="520.9" x2="632.7" y2="257.1"/>
			<text transform="matrix(0.1951 -0.9808 0.9808 0.1951 604.3706 416.6899)"><tspan x="0" y="0" fill="#FFFFFF" font-family="'ProximaNova-Bold'" font-size="9.7274">A</tspan><tspan x="6" y="0" fill="#FFFFFF" font-family="'ProximaNova-Bold'" font-size="9.7274">t</tspan><tspan x="10.8" y="0" fill="#FFFFFF" font-family="'ProximaNova-Bold'" font-size="9.7274">t</tspan><tspan x="15.6" y="0" fill="#FFFFFF" font-family="'ProximaNova-Bold'" font-size="9.7274">r</tspan><tspan x="20.9" y="0" fill="#FFFFFF" font-family="'ProximaNova-Bold'" font-size="9.7274">i</tspan><tspan x="23.2" y="0" fill="#FFFFFF" font-family="'ProximaNova-Bold'" font-size="9.7274">b</tspan><tspan x="28.5" y="0" fill="#FFFFFF" font-family="'ProximaNova-Bold'" font-size="9.7274">u</tspan><tspan x="34.8" y="0" fill="#FFFFFF" font-family="'ProximaNova-Bold'" font-size="9.7274">t</tspan><tspan x="39.6" y="0" fill="#FFFFFF" font-family="'ProximaNova-Bold'" font-size="9.7274">i</tspan><tspan x="41.9" y="0" fill="#FFFFFF" font-family="'ProximaNova-Bold'" font-size="9.7274">o</tspan><tspan x="48.6" y="0" fill="#FFFFFF" font-family="'ProximaNova-Bold'" font-size="9.7274">n</tspan></text>
			<polygon fill="#39454D" points="605.3,429.4 620.3,353.8 607.1,351.2 593.1,421.7 			"/>
				<path fill="#FFFFFF" d="M604.6,415.3l-1.2,0.2l-0.5,2.7l1,0.6l-0.3,1.5l-5.9-3.7l0.3-1.7l6.8-1.2L604.6,415.3z M599.3,416.1
					l2.5,1.5l0.4-2L599.3,416.1z"/>
				<path fill="#FFFFFF" d="M605.2,412.4l-5.2-1l-0.4,1.9l-1.2-0.2l1-5.1l1.2,0.2l-0.4,1.9l5.2,1L605.2,412.4z"/>
				<path fill="#FFFFFF" d="M606.3,406.8l-5.2-1l-0.4,1.9l-1.2-0.2l1-5.1l1.2,0.2l-0.4,1.9l5.2,1L606.3,406.8z"/>
				<path fill="#FFFFFF" d="M607.8,399.2l-2.5,0.8l-0.2,1l2.3,0.4l-0.3,1.4l-6.4-1.3l0.6-3c0.3-1.3,1.3-2,2.5-1.7
					c1.1,0.2,1.6,1,1.6,1.8l2.7-0.9L607.8,399.2z M603.6,398.2c-0.5-0.1-0.9,0.2-1,0.8l-0.3,1.4l1.7,0.3l0.3-1.4
					C604.3,398.8,604.1,398.3,603.6,398.2z"/>
				<path fill="#FFFFFF" d="M608.4,396.7l-6.4-1.3l0.3-1.4l6.4,1.3L608.4,396.7z"/>
				<path fill="#FFFFFF" d="M608.9,394l-6.4-1.3l0.7-3.3c0.2-1.2,1.1-1.7,2-1.5c0.8,0.2,1.2,0.8,1.2,1.4c0.2-0.7,1-1.1,1.8-0.9
					c1,0.2,1.6,1,1.3,2.2L608.9,394z M605.1,389.3c-0.4-0.1-0.8,0.1-0.8,0.6l-0.3,1.7l1.4,0.3l0.3-1.7
					C605.8,389.7,605.5,389.4,605.1,389.3z M607.8,389.7c-0.4-0.1-0.8,0.1-0.9,0.7l-0.3,1.7l1.5,0.3l0.3-1.7
					C608.4,390.2,608.2,389.8,607.8,389.7z"/>
				<path fill="#FFFFFF" d="M607.6,387.2l-3.8-0.8l0.3-1.4l3.8,0.8c0.9,0.2,1.6-0.2,1.8-1.2c0.2-1-0.3-1.6-1.2-1.8l-3.8-0.8l0.3-1.4
					l3.8,0.8c1.6,0.3,2.5,1.5,2.1,3.4C610.4,386.8,609.2,387.5,607.6,387.2z"/>
				<path fill="#FFFFFF" d="M611.8,379.4l-5.2-1l-0.4,1.9l-1.2-0.2l1-5.1l1.2,0.2l-0.4,1.9l5.2,1L611.8,379.4z"/>
				<path fill="#FFFFFF" d="M612.6,375.4l-6.4-1.3l0.3-1.4l6.4,1.3L612.6,375.4z"/>
				<path fill="#FFFFFF" d="M609.9,372.4c-1.9-0.4-3-2.1-2.6-4c0.4-1.9,2-3.1,4-2.7c1.9,0.4,3,2.1,2.6,4
					C613.4,371.7,611.8,372.8,609.9,372.4z M610.9,367.2c-1.2-0.2-2.2,0.3-2.5,1.5c-0.2,1.2,0.5,2.1,1.7,2.3
					c1.2,0.2,2.2-0.3,2.5-1.5C612.9,368.4,612.1,367.4,610.9,367.2z"/>
				<path fill="#FFFFFF" d="M615.4,361.1l-4.8,2.2l4.1,0.8l-0.3,1.4l-6.4-1.3l0.3-1.4l4.6-2.2l-4-0.8l0.3-1.4l6.4,1.3L615.4,361.1z"
					/>
			</g>
	<g class="opac lead-generation opportunity-sizing performance-assessment customer-assessment channel-optimisation digital-strategy measuring-effectiveness consumer-experience agility digital online-offline demonstrate-outcome customer-engagement data-synchronicity">
						<path fill="#B9DAE5" d="M504.8,187v10c11.2,0,20.9,8,23.1,19c2.5,12.7-5.8,25.2-18.5,27.7c-1.5,0.3-3.1,0.5-4.6,0.5
							c-11.2,0-20.9-8-23.1-19c-2.5-12.7,5.8-25.2,18.5-27.7c1.5-0.3,3.1-0.5,4.6-0.5L504.8,187 M504.8,187c-2.2,0-4.4,0.2-6.6,0.7
							c-18.2,3.6-30,21.3-26.4,39.4c3.2,16,17.2,27,32.9,27c2.2,0,4.4-0.2,6.6-0.7c18.2-3.6,30-21.3,26.4-39.4
							C534.5,198,520.5,187,504.8,187L504.8,187z"/>
				<path fill="#FFFFFF" d="M511.3,253.5"/>
				<path fill="#BBDCE5" d="M495.6,174.5l1.3,6.6c21.8-4.3,43,9.9,47.3,31.6c3.7,18.4-5.9,36.3-22,44.1l1.3,6.8
					c19.8-8.6,31.6-30.2,27.2-52.2C545.8,186,521,169.4,495.6,174.5z"/>
				<path fill="#BBDCE5" d="M502.5,260.7c-17.9-1-33.6-14-37.2-32.3c-4.3-21.8,9.9-43,31.6-47.3l-1.3-6.6
					c-25.4,5.1-41.9,29.8-36.9,55.2c4.4,22,23.6,37.4,45.1,37.8L502.5,260.7z"/>
					
						<text transform="matrix(0.9808 -0.1951 0.1951 0.9808 484.9556 226.6372)" display="inline" fill="#323F49" font-family="'ProximaNova-Regular'" font-size="7.3794">Conversion</text>
			
				<rect x="401" y="384.7" transform="matrix(0.1951 0.9808 -0.9808 0.1951 814.3199 -216.2067)" fill="#B9DAE5" width="275.7" height="6.7"/>
			<line fill="none" x1="565.1" y1="519.9" x2="512.6" y2="256.1"/>
			<text transform="matrix(-0.1951 -0.9808 0.9808 -0.1951 547.4907 414.0859)"><tspan x="0" y="0" fill="#FFFFFF" font-family="'ProximaNova-Bold'" font-size="9.7274">C</tspan><tspan x="5.7" y="0" fill="#FFFFFF" font-family="'ProximaNova-Bold'" font-size="9.7274">o</tspan><tspan x="12.3" y="0" fill="#FFFFFF" font-family="'ProximaNova-Bold'" font-size="9.7274">n</tspan><tspan x="18.8" y="0" fill="#FFFFFF" font-family="'ProximaNova-Bold'" font-size="9.7274">v</tspan><tspan x="24.2" y="0" fill="#FFFFFF" font-family="'ProximaNova-Bold'" font-size="9.7274">e</tspan><tspan x="28.9" y="0" fill="#FFFFFF" font-family="'ProximaNova-Bold'" font-size="9.7274">r</tspan><tspan x="34.2" y="0" fill="#FFFFFF" font-family="'ProximaNova-Bold'" font-size="9.7274">s</tspan><tspan x="39" y="0" fill="#FFFFFF" font-family="'ProximaNova-Bold'" font-size="9.7274">i</tspan><tspan x="41.3" y="0" fill="#FFFFFF" font-family="'ProximaNova-Bold'" font-size="9.7274">o</tspan><tspan x="48" y="0" fill="#FFFFFF" font-family="'ProximaNova-Bold'" font-size="9.7274">n</tspan></text>
		<path fill="#39454D" d="M538.1,349.9l-13.2,2.6l14.2,71.4c1.5,0.9,3.3,1.5,5.2,1.5c0.7,0,1.4-0.1,2-0.2c2.4-0.5,4.5-1.8,6-3.7
			L538.1,349.9z"/>
			<path fill="#FFFFFF" d="M545.1,418.6c-2,0.4-3.6-0.8-4-2.7c-0.3-1.4,0.3-2.4,1-3l0.8,1c-0.5,0.4-0.8,1-0.6,1.7
				c0.2,1.2,1.3,1.8,2.5,1.6c1.2-0.2,1.9-1.3,1.7-2.4c-0.1-0.7-0.6-1.2-1.2-1.3l0.3-1.3c0.9,0.3,1.8,0.9,2.1,2.4
				C548.1,416.5,547,418.2,545.1,418.6z"/>
			<path fill="#FFFFFF" d="M543.8,412.2c-1.9,0.4-3.6-0.7-4-2.7c-0.4-1.9,0.7-3.6,2.6-4c1.9-0.4,3.6,0.7,4,2.7
				C546.8,410.1,545.7,411.8,543.8,412.2z M542.8,406.9c-1.2,0.2-1.9,1.2-1.7,2.4c0.2,1.2,1.3,1.7,2.5,1.5c1.2-0.2,1.9-1.2,1.7-2.3
				S543.9,406.7,542.8,406.9z"/>
			<path fill="#FFFFFF" d="M544.6,399.5l-3.5,3.9l4.1-0.8l0.3,1.4l-6.4,1.3l-0.3-1.4l3.4-3.7l-4,0.8l-0.3-1.4l6.4-1.3L544.6,399.5z"
				/>
			<path fill="#FFFFFF" d="M543.7,395.1l-5.9,3.7l-0.3-1.5l4.5-2.7l-5.2-0.8l-0.3-1.5l6.8,1.2L543.7,395.1z"/>
			<path fill="#FFFFFF" d="M542.8,390.4l-6.4,1.3l-0.9-4.5l1.2-0.2l0.6,3.1l1.3-0.3l-0.6-3.1l1.2-0.2l0.6,3.1l1.4-0.3l-0.6-3.1
				l1.2-0.2L542.8,390.4z"/>
			<path fill="#FFFFFF" d="M540.9,381.1l-2,1.7l0.2,1l2.3-0.4l0.3,1.4l-6.4,1.3l-0.6-3c-0.3-1.3,0.4-2.3,1.6-2.5
				c1.1-0.2,1.9,0.4,2.2,1l2.1-1.9L540.9,381.1z M536.6,381.8c-0.5,0.1-0.8,0.6-0.7,1.1l0.3,1.4l1.7-0.3l-0.3-1.4
				C537.5,382.1,537.1,381.7,536.6,381.8z"/>
			<path fill="#FFFFFF" d="M539.6,379.2l-1.2-0.5c0.4-0.5,0.6-1.3,0.5-2.2c-0.1-0.7-0.6-1-0.9-1c-1.1,0.2,0.4,3.7-2,4.2
				c-1.1,0.2-2.1-0.5-2.4-2c-0.2-1-0.1-1.9,0.4-2.7l1.1,0.6c-0.4,0.6-0.5,1.3-0.3,2c0.1,0.6,0.4,0.9,0.8,0.8c1-0.2-0.4-3.7,2-4.2
				c1.2-0.2,2.2,0.4,2.5,2.1C540.3,377.5,540.1,378.5,539.6,379.2z"/>
			<path fill="#FFFFFF" d="M539.3,372.8l-6.4,1.3l-0.3-1.4l6.4-1.3L539.3,372.8z"/>
			<path fill="#FFFFFF" d="M535.6,371.1c-1.9,0.4-3.6-0.7-4-2.7c-0.4-1.9,0.7-3.6,2.6-4c1.9-0.4,3.6,0.7,4,2.7
				C538.7,369.1,537.6,370.7,535.6,371.1z M534.6,365.9c-1.2,0.2-1.9,1.2-1.7,2.4c0.2,1.2,1.3,1.7,2.5,1.5c1.2-0.2,1.9-1.2,1.7-2.3
				C536.8,366.2,535.8,365.6,534.6,365.9z"/>
			<path fill="#FFFFFF" d="M536.4,358.5l-3.5,3.9l4.1-0.8l0.3,1.4l-6.4,1.3l-0.3-1.4l3.4-3.7l-4,0.8l-0.3-1.4l6.4-1.3L536.4,358.5z"
				/>
	</g>
	<g>
		<g class="opac lead-generation opportunity-sizing performance-assessment customer-assessment channel-optimisation digital-strategy consumer-experience agility digital customer-engagement flexible-approach">


				<path fill="#B3B0C4" d="M381.9,238.9v10h0c7.9,0,15.2,3.9,19.6,10.5c3.5,5.2,4.7,11.5,3.5,17.7c-1.2,6.2-4.8,11.5-10,15
							c-3.9,2.6-8.4,4-13,4c-7.9,0-15.2-3.9-19.6-10.5c-3.5-5.2-4.7-11.5-3.5-17.7c1.2-6.2,4.8-11.5,10-15c3.9-2.6,8.4-4,13-4
							L381.9,238.9 M381.9,238.9c-6.4,0-12.9,1.8-18.6,5.7c-15.4,10.3-19.5,31.1-9.3,46.5c6.5,9.7,17.1,14.9,27.9,14.9
							c6.4,0,12.9-1.8,18.6-5.7c15.4-10.3,19.5-31.1,9.3-46.5C403.4,244.1,392.7,238.9,381.9,238.9L381.9,238.9z"/>

				<text transform="matrix(0.8315 -0.5556 0.5556 0.8315 369.9478 277.5952)" display="none"><tspan x="0" y="0" display="inline" fill="#323F49" font-family="'ProximaNova-Regular'" font-size="7.3793">Market</tspan><tspan x="-14.7" y="8.9" display="inline" fill="#323F49" font-family="'ProximaNova-Regular'" font-size="7.3793">Understanding</tspan></text>
				<path fill="#FFFFFF" d="M400.6,300.3"/>
				<path fill="#B3B0C4" d="M355.9,233.4l3.7,5.6c18.5-12.3,43.5-7.3,55.8,11.1c10.4,15.6,8.5,35.8-3.4,49.2l3.8,5.7
					c15-15.5,17.7-40,5.2-58.6C406.6,224.8,377.4,219,355.9,233.4z"/>
				<path fill="#B3B0C4" d="M395.2,310.4c-16.9,5.9-36.4-0.1-46.8-15.6c-12.3-18.5-7.3-43.5,11.1-55.8l-3.7-5.6
					c-21.5,14.4-27.3,43.6-13,65.1c12.5,18.7,36.1,25.5,56.2,17.6L395.2,310.4z"/>
			
				<rect x="339.5" y="410.8" transform="matrix(0.5556 0.8315 -0.8315 0.5556 556.4542 -212.8253)" fill="#B3B0C4" width="275.7" height="6.7"/>
			<line fill="none" x1="552" y1="525.9" x2="402.6" y2="302.3"/>

			<polygon fill="#39454D" points="434.1,362.6 508.4,473.7 510.9,474.1 520.5,467.7 445.3,355.1"/>
				<path fill="#FFFFFF" d="M443.7,371l3.8-2.5l-4.8,1l-0.3-0.5l2.8-4l-3.8,2.5l-0.8-1.1l5.4-3.6l1.1,1.6l-2.4,3.5l4.1-0.9l1.1,1.6
					l-5.4,3.6L443.7,371z"/>
				<path fill="#FFFFFF" d="M447.7,377l0.7-0.9l-1.5-2.3l-1.1,0.3l-0.9-1.3l6.8-1.5l1,1.4l-4,5.7L447.7,377z M451,372.6l-2.9,0.7
					l1.1,1.7L451,372.6z"/>
				<path fill="#FFFFFF" d="M451,381.8l1.2-2.3l-0.6-0.8l-1.9,1.3l-0.8-1.1l5.4-3.6l1.7,2.5c0.8,1.1,0.5,2.3-0.5,3
					c-1,0.6-1.9,0.4-2.4-0.1l-1.2,2.6L451,381.8z M454.7,379.5c0.5-0.3,0.5-0.8,0.2-1.3l-0.8-1.2l-1.5,1l0.8,1.2
					C453.8,379.6,454.3,379.8,454.7,379.5z"/>
				<path fill="#FFFFFF" d="M454.6,387.2l1.1-3.1l-0.8-0.1l-1.7,1.1l-0.8-1.1l5.4-3.6l0.8,1.1l-2.4,1.6l3.7,0.3l0.9,1.4l-4-0.5
					l-1.3,4.2L454.6,387.2z"/>
				<path fill="#FFFFFF" d="M455.9,389.2l5.4-3.6l2.5,3.8l-1,0.7l-1.8-2.7l-1.1,0.8l1.7,2.6l-1,0.7l-1.7-2.6l-1.2,0.8l1.8,2.7
					l-1,0.7L455.9,389.2z"/>
				<path fill="#FFFFFF" d="M459.9,395.1l4.4-2.9l-1.1-1.6l1-0.7l2.9,4.3l-1,0.7l-1-1.6l-4.4,2.9L459.9,395.1z"/>
				<path fill="#FFFFFF" d="M465.7,399.2l3.2-2.2l0.8,1.2l-3.2,2.1c-0.8,0.5-1,1.3-0.4,2.1c0.6,0.8,1.4,0.9,2.1,0.4l3.2-2.1l0.8,1.2
					l-3.2,2.2c-1.3,0.9-2.8,0.7-3.9-0.9C464,401.5,464.4,400.1,465.7,399.2z"/>
				<path fill="#FFFFFF" d="M470,410.3l1.8-4.9l-3.5,2.3l-0.8-1.1l5.4-3.6l0.8,1.2l-1.7,4.8l3.4-2.3l0.8,1.1l-5.4,3.6L470,410.3z"/>
				<path fill="#FFFFFF" d="M471.5,412.5l5.4-3.6l1.4,2.1c1.1,1.7,0.8,3.6-0.8,4.7c-1.6,1.1-3.5,0.6-4.6-1.1L471.5,412.5z
					 M476.8,414.5c1-0.6,1.3-1.7,0.6-2.8l-0.7-1l-3.4,2.3l0.7,1C474.7,415.1,475.8,415.2,476.8,414.5z"/>
				<path fill="#FFFFFF" d="M475.4,418.4l5.4-3.6l2.6,3.8l-1,0.7l-1.8-2.7l-1.1,0.8l1.7,2.6l-1,0.7l-1.7-2.6l-1.2,0.8l1.8,2.7
					l-1,0.7L475.4,418.4z"/>
				<path fill="#FFFFFF" d="M480.7,426.2l1.2-2.3l-0.6-0.8l-1.9,1.3l-0.8-1.1l5.4-3.6l1.7,2.5c0.8,1.1,0.5,2.3-0.5,3
					c-1,0.6-1.9,0.4-2.4-0.1l-1.2,2.6L480.7,426.2z M484.4,423.9c0.5-0.3,0.5-0.8,0.2-1.3l-0.8-1.2l-1.5,1l0.8,1.2
					C483.4,424,483.9,424.2,484.4,423.9z"/>
				<path fill="#FFFFFF" d="M482.6,427.5l1.3,0c-0.1,0.6-0.1,1.5,0.4,2.2c0.4,0.6,0.9,0.7,1.2,0.5c1-0.6-1.8-3.3,0.3-4.7
					c0.9-0.6,2.2-0.3,3,0.9c0.6,0.9,0.8,1.7,0.7,2.6l-1.3-0.1c0.1-0.7-0.1-1.4-0.5-2c-0.3-0.5-0.7-0.6-1.1-0.4
					c-0.9,0.6,1.8,3.3-0.2,4.6c-1,0.7-2.2,0.5-3.2-1C482.6,429.3,482.4,428.3,482.6,427.5z"/>
				<path fill="#FFFFFF" d="M486.1,434.4l4.4-2.9l-1.1-1.6l1-0.7l2.9,4.3l-1,0.7l-1-1.6l-4.4,2.9L486.1,434.4z"/>
				<path fill="#FFFFFF" d="M490.6,441l0.7-0.9l-1.5-2.3l-1.1,0.3l-0.9-1.3l6.8-1.5l1,1.4l-4,5.7L490.6,441z M493.8,436.7l-2.9,0.7
					l1.1,1.7L493.8,436.7z"/>
				<path fill="#FFFFFF" d="M494.3,446.6l1.8-4.9l-3.5,2.3l-0.8-1.1l5.4-3.6l0.8,1.2l-1.7,4.8l3.4-2.3l0.8,1.1l-5.4,3.6L494.3,446.6
					z"/>
				<path fill="#FFFFFF" d="M495.7,448.8l5.4-3.6l1.4,2.1c1.1,1.7,0.8,3.6-0.8,4.7c-1.6,1.1-3.5,0.6-4.6-1.1L495.7,448.8z
					 M501,450.8c1-0.6,1.3-1.7,0.6-2.8l-0.7-1l-3.4,2.3l0.7,1C498.9,451.3,500.1,451.4,501,450.8z"/>
				<path fill="#FFFFFF" d="M499.6,454.6l5.4-3.6l0.8,1.1l-5.4,3.6L499.6,454.6z"/>
				<path fill="#FFFFFF" d="M503.6,460.6l1.8-4.9l-3.5,2.4l-0.8-1.1l5.4-3.6l0.8,1.2l-1.7,4.8l3.4-2.3l0.8,1.1l-5.4,3.6L503.6,460.6
					z"/>
				<path fill="#FFFFFF" d="M507.6,460.7c1.7-1.1,3.7-0.6,4.7,1c0.8,1.1,0.7,2.2,0.3,3l-1.2-0.6c0.2-0.5,0.2-1.2-0.1-1.7
					c-0.7-1-1.9-1.2-2.9-0.5c-1,0.7-1.3,1.9-0.6,2.9c0.3,0.5,0.8,0.8,1.2,0.9l0.6-0.4l-1-1.4l1-0.7l1.7,2.6l-2.1,1.4
					c-1-0.1-1.9-0.6-2.6-1.6C505.7,463.9,505.9,461.9,507.6,460.7z"/>
		</g>
	</g>
	<g>
		<g class="opac lead-generation performance-assessment channel-optimisation digital-strategy measuring-effectiveness customer-engagement">
			<path fill="#DDD69B" d="M288.3,332.6v10c4.6,0,9.2,1.4,13,4c10.8,7.2,13.7,21.9,6.5,32.7c-4.4,6.6-11.7,10.5-19.6,10.5
						c-4.6,0-9.2-1.4-13-4c-10.8-7.2-13.7-21.9-6.5-32.7c4.4-6.6,11.7-10.5,19.6-10.5L288.3,332.6 M288.3,332.6
						c-10.8,0-21.5,5.2-27.9,14.9c-10.3,15.4-6.1,36.2,9.3,46.5c5.7,3.8,12.2,5.7,18.6,5.7c10.8,0,21.5-5.2,27.9-14.9
						c10.3-15.4,6.1-36.2-9.3-46.5C301.1,334.4,294.7,332.6,288.3,332.6L288.3,332.6z"/>
			<path fill="#FFFFFF" d="M316.1,384.8"/>
			<path fill="#DDD69B" d="M249.2,340l5.6,3.7c12.3-18.5,37.4-23.4,55.8-11.1c15.6,10.4,21.5,29.8,15.6,46.8l5.7,3.8
				c7.9-20.1,1-43.7-17.6-56.2C292.8,312.7,263.6,318.5,249.2,340z"/>
			<path fill="#DDD69B" d="M315.1,396.1c-13.4,11.9-33.6,13.9-49.2,3.4c-18.5-12.3-23.4-37.4-11.1-55.8l-5.6-3.7
				c-14.4,21.5-8.6,50.7,13,65.1c18.7,12.5,43.1,9.8,58.6-5.2L315.1,396.1z"/>
			<text transform="matrix(0.5556 -0.8315 0.8315 0.5556 278.8921 375.8652)" display="none"><tspan x="0" y="0" display="inline" fill="#323F49" font-family="'ProximaNova-Regular'" font-size="7.3793">Website</tspan><tspan x="-10.4" y="8.9" display="inline" fill="#323F49" font-family="'ProximaNova-Regular'" font-size="7.3793">Performance</tspan></text>
			<rect x="292.1" y="458.1" transform="matrix(0.8315 0.5555 -0.5555 0.8315 328.8329 -161.0948)" fill="#DDD69B" width="275.7" height="6.7"/>
		<polygon fill="#39454D" points="485,490.2 380.6,420.5 379.6,422.1 379.6,422.1 373.2,431.6 480.8,503.5 		"/>
			<path fill="#FFFFFF" d="M383.9,435.5l1.5-4.3l-3.4,3.1l-1.2-0.8l2.1-6.4l1.3,0.9l-1.7,4.5l3.6-3.2l0.9,0.6l-1.6,4.6l3.5-3.3
				l1.3,0.9l-5.1,4.4L383.9,435.5z"/>
			<path fill="#FFFFFF" d="M387.1,437.7l3.6-5.4l3.8,2.5l-0.7,1l-2.7-1.8l-0.8,1.1l2.6,1.7l-0.7,1l-2.6-1.7l-0.8,1.2l2.7,1.8l-0.7,1
				L387.1,437.7z"/>
			<path fill="#FFFFFF" d="M392,440.9l3.6-5.4l2.8,1.9c1,0.7,1.1,1.7,0.6,2.4c-0.5,0.7-1.2,0.9-1.8,0.6c0.5,0.5,0.6,1.3,0.1,2
				c-0.5,0.8-1.5,1.1-2.5,0.4L392,440.9z M397.7,439.2c0.2-0.3,0.2-0.8-0.2-1l-1.4-1l-0.8,1.2l1.4,1
				C397.1,439.7,397.5,439.6,397.7,439.2z M396.4,441.5c0.2-0.3,0.2-0.8-0.3-1.1l-1.5-1l-0.8,1.3l1.5,1
				C395.7,442,396.1,441.9,396.4,441.5z"/>
			<path fill="#FFFFFF" d="M397.5,443.5l1.2-0.5c0.1,0.7,0.5,1.4,1.2,1.9c0.6,0.4,1.1,0.3,1.3,0c0.6-1-2.9-2.4-1.5-4.4
				c0.6-0.9,1.9-1.1,3.1-0.3c0.9,0.6,1.4,1.3,1.6,2.2l-1.2,0.4c-0.2-0.7-0.6-1.3-1.2-1.6c-0.5-0.3-0.9-0.3-1.1,0
				c-0.6,0.9,2.9,2.4,1.6,4.4c-0.7,1-1.9,1.3-3.3,0.3C398.2,445.2,397.6,444.3,397.5,443.5z"/>
			<path fill="#FFFFFF" d="M402.2,447.8l3.6-5.4l1.1,0.8l-3.6,5.4L402.2,447.8z"/>
			<path fill="#FFFFFF" d="M405.6,450l2.9-4.4l-1.6-1.1l0.7-1l4.3,2.9l-0.7,1l-1.6-1l-2.9,4.4L405.6,450z"/>
			<path fill="#FFFFFF" d="M409,452.2l3.6-5.4l3.8,2.6l-0.7,1l-2.7-1.8l-0.8,1.1l2.6,1.7l-0.7,1l-2.6-1.7l-0.8,1.2l2.7,1.8l-0.7,1
				L409,452.2z"/>
			<path fill="#FFFFFF" d="M415.7,456.8l3.6-5.4l2.5,1.7c1.2,0.8,1.3,2,0.7,2.9c-0.6,0.9-1.8,1.3-3,0.5l-1.4-0.9l-1.3,1.9
				L415.7,456.8z M421.3,455.2c0.3-0.5,0.1-1-0.3-1.3l-1.2-0.8l-1,1.5l1.2,0.8C420.5,455.7,421,455.7,421.3,455.2z"/>
			<path fill="#FFFFFF" d="M420.7,460.1l3.6-5.4l3.8,2.5l-0.7,1l-2.7-1.8l-0.8,1.1l2.6,1.7l-0.7,1l-2.6-1.7l-0.8,1.2l2.7,1.8l-0.7,1
				L420.7,460.1z"/>
			<path fill="#FFFFFF" d="M428.6,465.4l0.2-2.6l-0.8-0.6l-1.3,1.9l-1.1-0.8l3.6-5.4l2.5,1.7c1.1,0.8,1.3,1.9,0.7,2.9
				c-0.6,1-1.6,1.1-2.3,0.8l-0.2,2.9L428.6,465.4z M431.1,461.8c0.3-0.5,0.1-1-0.3-1.3l-1.2-0.8l-1,1.5l1.2,0.8
				C430.3,462.3,430.8,462.2,431.1,461.8z"/>
			<path fill="#FFFFFF" d="M430.8,466.8l3.6-5.4l3.8,2.6l-0.7,1l-2.7-1.8l-0.8,1.1l2.6,1.7l-0.7,1l-2.6-1.7l-1.5,2.2L430.8,466.8z"
				/>
			<path fill="#FFFFFF" d="M436.9,467c1.1-1.6,3.1-2,4.7-0.9c1.6,1.1,2,3,1,4.7c-1.1,1.6-3.1,2-4.7,0.9
				C436.2,470.6,435.8,468.6,436.9,467z M441.3,470c0.7-1,0.5-2.2-0.5-2.9c-1-0.7-2.1-0.3-2.8,0.7c-0.7,1-0.5,2.2,0.5,2.9
				C439.5,471.3,440.7,471,441.3,470z"/>
			<path fill="#FFFFFF" d="M444.6,476.1l0.2-2.6l-0.8-0.6l-1.3,1.9l-1.1-0.8l3.6-5.4l2.5,1.7c1.1,0.8,1.3,1.9,0.6,2.9
				c-0.6,1-1.6,1.1-2.3,0.8l-0.2,2.9L444.6,476.1z M447.2,472.5c0.3-0.5,0.1-1-0.3-1.3l-1.2-0.8l-1,1.5l1.2,0.8
				C446.3,473,446.8,472.9,447.2,472.5z"/>
			<path fill="#FFFFFF" d="M451.5,480.6l2.5-3.8l-4,2.8l-0.5-0.3l1-4.8l-2.5,3.8l-1.1-0.8l3.6-5.4l1.6,1.1l-0.9,4.1l3.5-2.4l1.6,1.1
				l-3.6,5.4L451.5,480.6z"/>
			<path fill="#FFFFFF" d="M457.4,484.6l0.3-1.1l-2.3-1.5l-1,0.7l-1.3-0.9l5.7-4l1.4,1l-1.5,6.8L457.4,484.6z M458.8,479.4l-2.4,1.8
				l1.7,1.1L458.8,479.4z"/>
			<path fill="#FFFFFF" d="M463,488.3l-0.2-5.2l-2.4,3.5l-1.1-0.8l3.6-5.4l1.2,0.8l0.2,5.1l2.3-3.4l1.1,0.8l-3.6,5.4L463,488.3z"/>
			<path fill="#FFFFFF" d="M466.7,486.9c1.1-1.7,3.1-2,4.7-0.9c1.2,0.8,1.4,1.9,1.4,2.8l-1.3-0.2c0.1-0.6-0.2-1.3-0.7-1.6
				c-1-0.7-2.2-0.4-2.9,0.6c-0.7,1-0.5,2.2,0.5,2.9c0.6,0.4,1.3,0.4,1.8,0.1l0.7,1.1c-0.8,0.4-2,0.6-3.1-0.2
				C466.1,490.6,465.6,488.6,466.7,486.9z"/>
			<path fill="#FFFFFF" d="M470.7,493.5l3.6-5.4l3.8,2.5l-0.7,1l-2.7-1.8l-0.8,1.1l2.6,1.7l-0.7,1l-2.6-1.7l-0.8,1.2l2.7,1.8l-0.7,1
				L470.7,493.5z"/>
		</g>
	</g>
	<g class="opac lead-generation customer-assessment digital-strategy consumer-experience digital online-offline data-synchronicity">

				<path fill="#F4D5AF" d="M763.4,240.2v10c4.6,0,9.2,1.4,13,4c10.8,7.2,13.7,21.9,6.5,32.7c-4.4,6.6-11.7,10.5-19.6,10.5
							c-4.6,0-9.2-1.4-13-4c-10.8-7.2-13.7-21.9-6.5-32.7c4.4-6.6,11.7-10.5,19.6-10.5L763.4,240.2 M763.4,240.2
							c-10.8,0-21.5,5.2-27.9,14.9c-10.3,15.4-6.1,36.2,9.3,46.5c5.7,3.8,12.2,5.7,18.6,5.7c10.8,0,21.5-5.2,27.9-14.9
							c10.3-15.4,6.1-36.2-9.3-46.5C776.3,242,769.8,240.2,763.4,240.2L763.4,240.2z"/>
					<text transform="matrix(0.8315 0.5556 -0.5556 0.8315 750.8208 262.4805)" display="inline"><tspan x="0" y="0" fill="#323F49" font-family="'ProximaNova-Regular'" font-size="7.3793">Database</tspan><tspan x="-9.1" y="8.9" fill="#323F49" font-family="'ProximaNova-Regular'" font-size="7.3793">Interrogation</tspan></text>
				<path fill="#FFFFFF" d="M744.8,301.6"/>
				<path fill="#F4D5AF" d="M789.5,234.7l-3.7,5.6c18.5,12.3,23.4,37.4,11.1,55.8c-10.4,15.6-29.8,21.5-46.8,15.6l-3.8,5.7
					c20.1,7.9,43.7,1,56.2-17.6C816.8,278.3,811,249.1,789.5,234.7z"/>
				<path fill="#F4D5AF" d="M733.4,300.5c-11.9-13.4-13.8-33.6-3.4-49.2c12.3-18.5,37.4-23.4,55.8-11.1l3.7-5.6
					c-21.5-14.4-50.7-8.6-65.1,13c-12.5,18.7-9.8,43.1,5.2,58.6L733.4,300.5z"/>
			
				<rect x="530.9" y="412.1" transform="matrix(-0.5556 0.8315 -0.8315 -0.5556 1385.6362 90.2219)" fill="#F4D5AF" width="275.7" height="6.7"/>
			<line fill="none" x1="594" y1="527.3" x2="743.4" y2="303.6"/>
			<text transform="matrix(0.5556 -0.8315 0.8315 0.5556 639.7896 464.7588)"><tspan x="0" y="0" fill="#FFFFFF" font-family="'ProximaNova-Bold'" font-size="9.7273">D</tspan><tspan x="6.5" y="0" fill="#FFFFFF" font-family="'ProximaNova-Bold'" font-size="9.7273" rotate="0">a</tspan><tspan x="12.4" y="0" fill="#FFFFFF" font-family="'ProximaNova-Bold'" font-size="9.7273" rotate="0">t</tspan><tspan x="17.3" y="0" fill="#FFFFFF" font-family="'ProximaNova-Bold'" font-size="9.7273" rotate="0">a</tspan><tspan x="23.2" y="0" fill="#FFFFFF" font-family="'ProximaNova-Bold'" font-size="9.7273" rotate="0">b</tspan><tspan x="28.5" y="0" fill="#FFFFFF" font-family="'ProximaNova-Bold'" font-size="9.7273" rotate="0">a</tspan><tspan x="34.5" y="0" fill="#FFFFFF" font-family="'ProximaNova-Bold'" font-size="9.7273" rotate="0">s</tspan><tspan x="39.2" y="0" fill="#FFFFFF" font-family="'ProximaNova-Bold'" font-size="9.7273" rotate="0">e</tspan><tspan x="44" y="0" fill="#FFFFFF" font-family="'ProximaNova-Bold'" font-size="9.7273" rotate="0"> </tspan><tspan x="46.1" y="0" fill="#FFFFFF" font-family="'ProximaNova-Bold'" font-size="9.7273" rotate="0">I</tspan><tspan x="48.4" y="0" fill="#FFFFFF" font-family="'ProximaNova-Bold'" font-size="9.7273" rotate="0">n</tspan><tspan x="54.8" y="0" fill="#FFFFFF" font-family="'ProximaNova-Bold'" font-size="9.7273" rotate="0">t</tspan><tspan x="59.7" y="0" fill="#FFFFFF" font-family="'ProximaNova-Bold'" font-size="9.7273" rotate="0">e</tspan><tspan x="64.4" y="0" fill="#FFFFFF" font-family="'ProximaNova-Bold'" font-size="9.7273" rotate="0">r</tspan><tspan x="69.7" y="0" fill="#FFFFFF" font-family="'ProximaNova-Bold'" font-size="9.7273" rotate="0">r</tspan><tspan x="74.9" y="0" fill="#FFFFFF" font-family="'ProximaNova-Bold'" font-size="9.7273" rotate="0">o</tspan><tspan x="81.6" y="0" fill="#FFFFFF" font-family="'ProximaNova-Bold'" font-size="9.7273" rotate="0">g</tspan><tspan x="87.9" y="0" fill="#FFFFFF" font-family="'ProximaNova-Bold'" font-size="9.7273" rotate="0">a</tspan><tspan x="93.8" y="0" fill="#FFFFFF" font-family="'ProximaNova-Bold'" font-size="9.7273" rotate="0">t</tspan><tspan x="98.7" y="0" fill="#FFFFFF" font-family="'ProximaNova-Bold'" font-size="9.7273" rotate="0">i</tspan><tspan x="101" y="0" fill="#FFFFFF" font-family="'ProximaNova-Bold'" font-size="9.7273" rotate="0">o</tspan><tspan x="107.7" y="0" fill="#FFFFFF" font-family="'ProximaNova-Bold'" font-size="9.7273">n</tspan></text>
			
				<rect x="598.6" y="408.8" transform="matrix(-0.5555 0.8315 -0.8315 -0.5555 1385.6271 90.288)" fill="#39454D" width="140.1" height="13.4"/>
				<path fill="#FFFFFF" d="M636.3,470l-5.4-3.6l1.4-2.1c1.1-1.7,3-2.1,4.6-1.1c1.6,1.1,1.9,3,0.8,4.7L636.3,470z M636.1,464.4
					c-1-0.6-2.1-0.5-2.8,0.6l-0.7,1l3.4,2.3l0.7-1C637.4,466.1,637,465,636.1,464.4z"/>
				<path fill="#FFFFFF" d="M642.5,460.7l-1.1-0.3l-1.5,2.3l0.7,1l-0.9,1.3l-4-5.7l1-1.4l6.8,1.5L642.5,460.7z M637.3,459.3l1.8,2.4
					l1.1-1.7L637.3,459.3z"/>
				<path fill="#FFFFFF" d="M644.1,458.2l-4.4-2.9l-1.1,1.6l-1-0.7l2.9-4.3l1,0.7l-1,1.6l4.4,2.9L644.1,458.2z"/>
				<path fill="#FFFFFF" d="M648.5,451.7l-1.1-0.3l-1.5,2.3l0.7,1l-0.9,1.3l-4-5.7l1-1.4l6.8,1.5L648.5,451.7z M643.3,450.3l1.8,2.4
					l1.1-1.7L643.3,450.3z"/>
				<path fill="#FFFFFF" d="M649.8,449.8l-5.4-3.6l1.9-2.8c0.7-1,1.7-1.1,2.4-0.6c0.7,0.5,0.9,1.2,0.6,1.8c0.5-0.5,1.3-0.6,2-0.1
					c0.8,0.5,1.1,1.5,0.4,2.5L649.8,449.8z M648.1,444.1c-0.3-0.2-0.8-0.2-1,0.2l-1,1.4l1.2,0.8l1-1.4
					C648.5,444.7,648.4,444.3,648.1,444.1z M650.4,445.4c-0.3-0.2-0.8-0.2-1.1,0.3l-1,1.5l1.3,0.8l1-1.5
					C650.8,446.1,650.8,445.7,650.4,445.4z"/>
				<path fill="#FFFFFF" d="M655.8,440.8l-1.1-0.3l-1.5,2.3l0.7,1l-0.9,1.3l-4-5.7l1-1.4l6.8,1.5L655.8,440.8z M650.5,439.5l1.8,2.4
					l1.1-1.7L650.5,439.5z"/>
				<path fill="#FFFFFF" d="M656,438.8l-0.5-1.2c0.7-0.1,1.4-0.5,1.9-1.2c0.4-0.6,0.3-1.1,0-1.3c-1-0.6-2.4,2.9-4.4,1.5
					c-0.9-0.6-1.1-1.9-0.3-3.1c0.6-0.9,1.3-1.4,2.2-1.6l0.4,1.2c-0.7,0.2-1.3,0.6-1.6,1.2c-0.3,0.5-0.3,0.9,0,1.1
					c0.9,0.6,2.4-2.9,4.4-1.6c1,0.7,1.3,1.9,0.3,3.3C657.7,438.1,656.9,438.6,656,438.8z"/>
				<path fill="#FFFFFF" d="M660.3,434l-5.4-3.6l2.5-3.8l1,0.7l-1.8,2.7l1.1,0.8l1.7-2.6l1,0.7l-1.7,2.6l1.2,0.8l1.8-2.7l1,0.7
					L660.3,434z"/>
				<path fill="#FFFFFF" d="M664.9,427.2l-5.4-3.6l0.8-1.1l5.4,3.6L664.9,427.2z"/>
				<path fill="#FFFFFF" d="M668.8,421.3l-5.2,0.2l3.5,2.3l-0.8,1.1l-5.4-3.6l0.8-1.2l5.1-0.2l-3.4-2.3l0.8-1.1l5.4,3.6L668.8,421.3
					z"/>
				<path fill="#FFFFFF" d="M671.1,417.9l-4.4-2.9l-1.1,1.6l-1-0.7l2.9-4.3l1,0.7l-1,1.6l4.4,2.9L671.1,417.9z"/>
				<path fill="#FFFFFF" d="M673.3,414.6l-5.4-3.6l2.5-3.8l1,0.7l-1.8,2.7l1.1,0.8l1.7-2.6l1,0.7l-1.7,2.6l1.2,0.8l1.8-2.7l1,0.7
					L673.3,414.6z"/>
				<path fill="#FFFFFF" d="M678.6,406.7l-2.6-0.2l-0.6,0.8l1.9,1.3l-0.8,1.1l-5.4-3.6l1.7-2.5c0.8-1.1,1.9-1.3,2.9-0.6
					c1,0.6,1.1,1.6,0.8,2.3l2.9,0.2L678.6,406.7z M675,404.2c-0.5-0.3-1-0.1-1.3,0.3l-0.8,1.2l1.5,1l0.8-1.2
					C675.5,405,675.4,404.5,675,404.2z"/>
				<path fill="#FFFFFF" d="M682,401.5l-2.6-0.2l-0.6,0.8l1.9,1.3l-0.8,1.1l-5.4-3.6l1.7-2.5c0.8-1.1,1.9-1.3,2.9-0.6
					c1,0.6,1.1,1.6,0.8,2.3l2.9,0.2L682,401.5z M678.5,399c-0.5-0.3-1-0.1-1.3,0.3l-0.8,1.2l1.5,1l0.8-1.2
					C679,399.8,678.9,399.3,678.5,399z"/>
				<path fill="#FFFFFF" d="M680.6,397.9c-1.6-1.1-2-3.1-0.9-4.7c1.1-1.6,3-2,4.7-1c1.6,1.1,2,3.1,0.9,4.7
					C684.2,398.6,682.2,399,680.6,397.9z M683.5,393.4c-1-0.7-2.2-0.5-2.9,0.5c-0.7,1-0.3,2.1,0.7,2.8c1,0.7,2.2,0.5,2.9-0.4
					C684.9,395.3,684.6,394.1,683.5,393.4z"/>
				<path fill="#FFFFFF" d="M684.7,391.7c-1.7-1.1-1.9-3.2-0.9-4.7c0.8-1.1,1.8-1.4,2.7-1.4l-0.1,1.3c-0.5,0-1.2,0.2-1.6,0.8
					c-0.7,1-0.4,2.2,0.6,2.9c1,0.7,2.2,0.5,2.9-0.5c0.3-0.5,0.4-1.1,0.4-1.4l-0.6-0.4l-1,1.4l-1-0.7l1.7-2.6l2.1,1.4
					c0.2,1,0.1,2-0.5,3C688.4,392.3,686.4,392.8,684.7,391.7z"/>
				<path fill="#FFFFFF" d="M693.9,383.7l-1.1-0.3l-1.5,2.3l0.7,0.9L691,388l-4-5.7l1-1.4l6.8,1.5L693.9,383.7z M688.7,382.4
					l1.8,2.4l1.1-1.7L688.7,382.4z"/>
				<path fill="#FFFFFF" d="M695.6,381.3l-4.4-2.9l-1.1,1.6l-1-0.7l2.9-4.3l1,0.7l-1,1.6l4.4,2.9L695.6,381.3z"/>
				<path fill="#FFFFFF" d="M697.8,377.9l-5.4-3.6l0.8-1.1l5.4,3.6L697.8,377.9z"/>
				<path fill="#FFFFFF" d="M696.4,374.2c-1.6-1.1-2-3.1-0.9-4.7c1.1-1.6,3-2,4.7-1c1.6,1.1,2,3.1,0.9,4.7
					C700,374.8,698,375.3,696.4,374.2z M699.4,369.7c-1-0.7-2.2-0.5-2.9,0.5c-0.7,1-0.3,2.1,0.7,2.8c1,0.7,2.2,0.5,2.9-0.5
					C700.7,371.5,700.4,370.4,699.4,369.7z"/>
				<path fill="#FFFFFF" d="M705.9,365.8l-5.2,0.2l3.5,2.4l-0.8,1.1l-5.4-3.6l0.8-1.2l5.1-0.2l-3.4-2.3l0.8-1.1l5.4,3.6L705.9,365.8
					z"/>
	</g>
	<g class="opac lead-generation channel-optimisation digital-strategy agility digital online-offline demonstrate-outcome">
						<path fill="#E9BED1" d="M855.8,333.6v10c7.9,0,15.2,3.9,19.6,10.5c3.5,5.2,4.7,11.5,3.5,17.7c-1.2,6.2-4.8,11.5-10,15
							c-3.9,2.6-8.4,4-13,4c-7.9,0-15.2-3.9-19.6-10.5c-3.5-5.2-4.7-11.5-3.5-17.7c1.2-6.2,4.8-11.5,10-15c3.9-2.6,8.4-4,13-4
							L855.8,333.6 M855.8,333.6c-6.4,0-12.9,1.8-18.6,5.7c-15.4,10.3-19.5,31.1-9.3,46.5c6.5,9.7,17.1,14.9,27.9,14.9
							c6.4,0,12.9-1.8,18.6-5.7c15.4-10.3,19.5-31.1,9.3-46.5C877.2,338.8,866.6,333.6,855.8,333.6L855.8,333.6z"/>
				<path fill="#FFFFFF" d="M827.9,385.7"/>
				<path fill="#E9BDD0" d="M894.8,341l-5.6,3.7c12.3,18.5,7.3,43.5-11.1,55.8c-15.6,10.4-35.8,8.5-49.2-3.4l-5.7,3.8
					c15.5,15,40,17.7,58.6,5.2C903.4,391.8,909.2,362.5,894.8,341z"/>
				<path fill="#E9BDD0" d="M817.8,380.4c-5.9-16.9,0.1-36.4,15.6-46.8c18.5-12.3,43.5-7.3,55.8,11.1l5.6-3.7
					c-14.4-21.5-43.6-27.3-65.1-13c-18.7,12.5-25.5,36.1-17.6,56.2L817.8,380.4z"/>
						<text transform="matrix(0.5556 0.8315 -0.8315 0.5556 843.5308 352.4912)" display="inline" fill="#323F49" font-family="'ProximaNova-Regular'" font-size="7.3793">Modelling</text>
				<rect x="576.2" y="459.1" transform="matrix(-0.8315 0.5556 -0.5556 -0.8315 1564.7242 450.2614)" fill="#E9BED1" width="275.7" height="6.7"/>
			<line fill="none" x1="602.2" y1="537.2" x2="825.9" y2="387.7"/>
			<text transform="matrix(0.8315 -0.5556 0.5556 0.8315 695.1353 479.1543)"><tspan x="0" y="0" fill="#FFFFFF" font-family="'ProximaNova-Bold'" font-size="9.7273">M</tspan><tspan x="7.8" y="0" fill="#FFFFFF" font-family="'ProximaNova-Bold'" font-size="9.7273">o</tspan><tspan x="14.5" y="0" fill="#FFFFFF" font-family="'ProximaNova-Bold'" font-size="9.7273">d</tspan><tspan x="21" y="0" fill="#FFFFFF" font-family="'ProximaNova-Bold'" font-size="9.7273">e</tspan><tspan x="25.8" y="0" fill="#FFFFFF" font-family="'ProximaNova-Bold'" font-size="9.7273">l</tspan><tspan x="30.4" y="0" fill="#FFFFFF" font-family="'ProximaNova-Bold'" font-size="9.7273">l</tspan><tspan x="35" y="0" fill="#FFFFFF" font-family="'ProximaNova-Bold'" font-size="9.7273">i</tspan><tspan x="37.3" y="0" fill="#FFFFFF" font-family="'ProximaNova-Bold'" font-size="9.7273">n</tspan><tspan x="43.7" y="0" fill="#FFFFFF" font-family="'ProximaNova-Bold'" font-size="9.7273">g</tspan></text>
			<polygon fill="#39454D" points="689.7,486.8 744.5,450.2 744.9,447.7 738.5,438.1 682.3,475.6 			"/>
				<path fill="#FFFFFF" d="M698.1,477.2l-2.5-3.8l1,4.8l-0.5,0.3l-4-2.8l2.5,3.8l-1.1,0.8l-3.6-5.4l1.6-1.1l3.5,2.4l-0.9-4.1
					l1.6-1.1l3.6,5.4L698.1,477.2z"/>
				<path fill="#FFFFFF" d="M698.3,473.1c-1.1-1.6-0.7-3.6,1-4.7c1.6-1.1,3.6-0.7,4.7,0.9c1.1,1.6,0.7,3.6-1,4.7
					C701.4,475.1,699.4,474.7,698.3,473.1z M702.8,470.1c-0.7-1-1.8-1.3-2.8-0.7c-1,0.7-1.1,1.9-0.5,2.9c0.7,1,1.8,1.3,2.8,0.7
					C703.3,472.3,703.5,471.1,702.8,470.1z"/>
				<path fill="#FFFFFF" d="M706.6,471.5l-3.6-5.4l2.1-1.4c1.7-1.1,3.6-0.8,4.7,0.8c1.1,1.6,0.6,3.5-1.1,4.6L706.6,471.5z
					 M708.6,466.2c-0.6-1-1.7-1.3-2.8-0.6l-1,0.7l2.3,3.4l1-0.7C709.1,468.3,709.2,467.2,708.6,466.2z"/>
				<path fill="#FFFFFF" d="M712.4,467.6l-3.6-5.4l3.8-2.5l0.7,1l-2.7,1.8l0.8,1.1l2.6-1.7l0.7,1l-2.6,1.7l0.8,1.2l2.7-1.8l0.7,1
					L712.4,467.6z"/>
				<path fill="#FFFFFF" d="M717.2,464.4l-3.6-5.4l1.1-0.8l2.9,4.4l2.3-1.5l0.7,1L717.2,464.4z"/>
				<path fill="#FFFFFF" d="M721.3,461.6l-3.6-5.4l1.1-0.8l2.9,4.4l2.3-1.5l0.7,1L721.3,461.6z"/>
				<path fill="#FFFFFF" d="M725.4,458.9l-3.6-5.4l1.1-0.8l3.6,5.4L725.4,458.9z"/>
				<path fill="#FFFFFF" d="M731.4,454.9l-4.9-1.8l2.4,3.5l-1.1,0.8l-3.6-5.4l1.2-0.8l4.8,1.7l-2.3-3.4l1.1-0.8l3.6,5.4L731.4,454.9
					z"/>
				<path fill="#FFFFFF" d="M731.5,450.9c-1.1-1.7-0.6-3.7,1-4.7c1.1-0.8,2.2-0.7,3-0.3l-0.6,1.2c-0.5-0.2-1.2-0.2-1.7,0.1
					c-1,0.7-1.2,1.9-0.5,2.9c0.7,1,1.9,1.3,2.9,0.6c0.5-0.3,0.8-0.8,0.9-1.2L736,449l-1.4,1l-0.7-1l2.6-1.7l1.4,2.1
					c-0.1,1-0.6,1.9-1.6,2.6C734.7,452.9,732.7,452.6,731.5,450.9z"/>
	</g>
	<g class="opac lead-generation performance-assessment channel-optimisation digital-strategy consumer-experience agility customer-engagement data-synchronicity flexible-approach">
						<path fill="#84A8B0" d="M906.4,467c11.2,0,20.9,8,23.1,19c1.2,6.2,0,12.4-3.5,17.7c-3.5,5.2-8.8,8.8-15,10
							c-1.5,0.3-3.1,0.5-4.6,0.5c-11.2,0-20.9-8-23.1-19c-2.5-12.7,5.8-25.2,18.5-27.7C903.2,467.2,904.8,467,906.4,467L906.4,467
							 M906.3,457c-2.2,0-4.4,0.2-6.6,0.7c-18.2,3.6-30,21.3-26.4,39.4c3.2,16,17.2,27,32.9,27c2.2,0,4.4-0.2,6.6-0.7
							c18.2-3.6,30-21.3,26.4-39.4C936,468.1,922,457,906.3,457L906.3,457z"/>
				<path fill="#FFFFFF" d="M873.4,497.1"/>
				<path fill="#84A7B0" d="M952.4,481.4l-6.6,1.3c4.3,21.8-9.9,43-31.6,47.3c-18.4,3.7-36.3-5.9-44.1-22l-6.8,1.3
					c8.6,19.8,30.2,31.6,52.2,27.2C940.9,531.6,957.4,506.8,952.4,481.4z"/>
				<path fill="#84A7B0" d="M866.1,488.3c1-17.9,14-33.6,32.3-37.2c21.8-4.3,43,9.9,47.3,31.6l6.6-1.3
					c-5.1-25.4-29.8-41.9-55.2-36.9c-22,4.4-37.4,23.6-37.8,45.1L866.1,488.3z"/>
			
				<rect x="601" y="520.7" transform="matrix(-0.9808 0.1951 -0.1951 -0.9808 1565.7048 893.8784)" fill="#84A8B0" width="275.7" height="6.7"/>
			<line fill="none" x1="606.9" y1="550.3" x2="870.7" y2="497.8"/>
			<text transform="matrix(0.9808 -0.1951 0.1951 0.9808 701.7056 534.8594)"><tspan x="0" y="0" fill="#FFFFFF" font-family="'ProximaNova-Bold'" font-size="9.7274">P</tspan><tspan x="5.2" y="0" fill="#FFFFFF" font-family="'ProximaNova-Bold'" font-size="9.7274">e</tspan><tspan x="10" y="0" fill="#FFFFFF" font-family="'ProximaNova-Bold'" font-size="9.7274">r</tspan><tspan x="15.2" y="0" fill="#FFFFFF" font-family="'ProximaNova-Bold'" font-size="9.7274">s</tspan><tspan x="20" y="0" fill="#FFFFFF" font-family="'ProximaNova-Bold'" font-size="9.7274">o</tspan><tspan x="26.7" y="0" fill="#FFFFFF" font-family="'ProximaNova-Bold'" font-size="9.7274">n</tspan><tspan x="33.1" y="0" fill="#FFFFFF" font-family="'ProximaNova-Bold'" font-size="9.7274">a</tspan><tspan x="39.1" y="0" fill="#FFFFFF" font-family="'ProximaNova-Bold'" font-size="9.7274">l</tspan><tspan x="43.7" y="0" fill="#FFFFFF" font-family="'ProximaNova-Bold'" font-size="9.7274">i</tspan><tspan x="46" y="0" fill="#FFFFFF" font-family="'ProximaNova-Bold'" font-size="9.7274">s</tspan><tspan x="50.8" y="0" fill="#FFFFFF" font-family="'ProximaNova-Bold'" font-size="9.7274">a</tspan><tspan x="56.7" y="0" fill="#FFFFFF" font-family="'ProximaNova-Bold'" font-size="9.7274">t</tspan><tspan x="61.6" y="0" fill="#FFFFFF" font-family="'ProximaNova-Bold'" font-size="9.7274">i</tspan><tspan x="63.9" y="0" fill="#FFFFFF" font-family="'ProximaNova-Bold'" font-size="9.7274">o</tspan><tspan x="70.6" y="0" fill="#FFFFFF" font-family="'ProximaNova-Bold'" font-size="9.7274">n</tspan></text>
			
				<rect x="689.1" y="517.4" transform="matrix(0.9808 -0.1951 0.1951 0.9808 -88.0535 154.2217)" fill="#39454D" width="99.3" height="13.4"/>
				<path fill="#FFFFFF" d="M697.3,535.7l-1.3-6.4l3-0.6c1.4-0.3,2.3,0.5,2.5,1.6c0.2,1.1-0.4,2.2-1.7,2.5l-1.6,0.3l0.5,2.3
					L697.3,535.7z M700.2,530.7c-0.1-0.5-0.6-0.8-1.1-0.7l-1.4,0.3l0.3,1.7l1.4-0.3C700,531.6,700.3,531.2,700.2,530.7z"/>
				<path fill="#FFFFFF" d="M703.2,534.6l-1.3-6.4l4.5-0.9l0.2,1.2l-3.1,0.6l0.3,1.3l3.1-0.6l0.2,1.2l-3.1,0.6l0.3,1.4l3.1-0.6
					l0.2,1.2L703.2,534.6z"/>
				<path fill="#FFFFFF" d="M712.5,532.7l-1.7-2l-1,0.2l0.5,2.3l-1.4,0.3l-1.3-6.4l3-0.6c1.3-0.3,2.3,0.4,2.5,1.6
					c0.2,1.1-0.4,1.9-1,2.2l1.9,2.1L712.5,532.7z M711.8,528.4c-0.1-0.5-0.6-0.8-1.1-0.7l-1.4,0.3l0.3,1.7l1.4-0.3
					C711.5,529.3,711.9,528.9,711.8,528.4z"/>
				<path fill="#FFFFFF" d="M714.4,531.4l0.5-1.2c0.5,0.4,1.3,0.6,2.2,0.5c0.7-0.1,1-0.6,1-0.9c-0.2-1.1-3.7,0.4-4.2-2
					c-0.2-1.1,0.5-2.1,2-2.4c1-0.2,1.9-0.1,2.7,0.4l-0.6,1.1c-0.6-0.4-1.3-0.5-2-0.3c-0.6,0.1-0.9,0.4-0.8,0.8c0.2,1,3.7-0.4,4.2,2
					c0.2,1.2-0.4,2.2-2.1,2.5C716.1,532.1,715.1,531.9,714.4,531.4z"/>
				<path fill="#FFFFFF" d="M719.7,528c-0.4-1.9,0.7-3.6,2.7-4c1.9-0.4,3.6,0.7,4,2.6c0.4,1.9-0.7,3.6-2.7,4
					C721.8,531,720.1,529.9,719.7,528z M725,526.9c-0.2-1.2-1.2-1.9-2.4-1.7c-1.2,0.2-1.7,1.3-1.5,2.5c0.2,1.2,1.2,1.9,2.3,1.7
					C724.6,529.2,725.2,528.1,725,526.9z"/>
				<path fill="#FFFFFF" d="M732.4,528.8l-3.9-3.5l0.8,4.1l-1.4,0.3l-1.3-6.4l1.4-0.3l3.7,3.4l-0.8-4l1.4-0.3l1.3,6.4L732.4,528.8z"
					/>
				<path fill="#FFFFFF" d="M739.4,527.4l-0.6-1l-2.7,0.5l-0.2,1.2l-1.5,0.3l1.2-6.9l1.7-0.3l3.7,5.9L739.4,527.4z M736.6,522.7
					l-0.4,2.9l2-0.4L736.6,522.7z"/>
				<path fill="#FFFFFF" d="M741.5,526.9l-1.3-6.4l1.4-0.3l1,5.2l2.7-0.5l0.2,1.2L741.5,526.9z"/>
				<path fill="#FFFFFF" d="M746.4,526l-1.3-6.4l1.4-0.3l1.3,6.4L746.4,526z"/>
				<path fill="#FFFFFF" d="M748.4,524.6l0.5-1.2c0.5,0.4,1.3,0.6,2.2,0.5c0.7-0.1,1-0.6,1-0.9c-0.2-1.1-3.7,0.4-4.2-2
					c-0.2-1.1,0.5-2.1,2-2.4c1-0.2,1.9-0.1,2.7,0.4l-0.6,1.1c-0.6-0.4-1.3-0.5-2-0.3c-0.6,0.1-0.9,0.4-0.8,0.8c0.2,1,3.7-0.4,4.2,2
					c0.2,1.2-0.4,2.2-2.1,2.5C750.1,525.4,749.1,525.1,748.4,524.6z"/>
				<path fill="#FFFFFF" d="M759.1,523.4l-0.6-1l-2.7,0.5l-0.2,1.2l-1.5,0.3l1.2-6.9l1.7-0.3l3.7,5.9L759.1,523.4z M756.3,518.8
					l-0.4,2.9l2-0.4L756.3,518.8z"/>
				<path fill="#FFFFFF" d="M762,522.9l-1-5.2l-1.9,0.4l-0.2-1.2l5.1-1l0.2,1.2l-1.8,0.4l1,5.2L762,522.9z"/>
				<path fill="#FFFFFF" d="M765.9,522.1l-1.3-6.4l1.4-0.3l1.3,6.4L765.9,522.1z"/>
				<path fill="#FFFFFF" d="M767.6,518.4c-0.4-1.9,0.7-3.6,2.7-4c1.9-0.4,3.6,0.7,4,2.6c0.4,1.9-0.7,3.6-2.7,4
					C769.7,521.5,768,520.4,767.6,518.4z M772.9,517.4c-0.2-1.2-1.2-1.9-2.4-1.7c-1.2,0.2-1.7,1.3-1.5,2.5c0.2,1.2,1.2,1.9,2.3,1.7
					C772.5,519.6,773.1,518.6,772.9,517.4z"/>
				<path fill="#FFFFFF" d="M780.2,519.2l-3.9-3.5l0.8,4.1l-1.4,0.3l-1.3-6.4l1.4-0.3l3.7,3.4l-0.8-4l1.4-0.3l1.3,6.4L780.2,519.2z"
					/>
	</g>
	<g>
		<g class="opac lead-generation opportunity-sizing performance-assessment customer-assessment channel-optimisation digital-strategy measuring-effectiveness agility demonstrate-outcome customer-engagement data-synchronicity">
		<path fill="#C6D6A6" d="M237,466.4L237,466.4c1.5,0,3.1,0.2,4.6,0.5c12.7,2.5,21,15,18.5,27.7c-2.2,11-11.9,19-23.1,19
				c-1.5,0-3.1-0.2-4.6-0.5c-6.2-1.2-11.5-4.8-15-10c-3.5-5.2-4.7-11.5-3.5-17.7C216.1,474.4,225.8,466.4,237,466.4 M237,456.4
				c-15.7,0-29.7,11-32.9,27c-3.6,18.2,8.2,35.8,26.4,39.4c2.2,0.4,4.4,0.7,6.6,0.7c15.7,0,29.7-11,32.9-27
				c3.6-18.2-8.2-35.8-26.4-39.4C241.4,456.6,239.2,456.4,237,456.4L237,456.4z"/>
		<path fill="#C6D6A6" d="M191,480.8l6.6,1.3c4.3-21.8,25.6-36,47.3-31.6c18.4,3.7,31.3,19.3,32.3,37.2l6.8,1.3
			c-0.4-21.6-15.8-40.8-37.8-45.1C220.8,438.8,196,455.4,191,480.8z"/>
		<path fill="#C6D6A6" d="M273.3,507.4c-7.8,16.1-25.8,25.7-44.1,22c-21.8-4.3-36-25.6-31.6-47.3l-6.6-1.3
			c-5.1,25.4,11.5,50.2,36.9,55.2c22,4.4,43.5-7.5,52.2-27.2L273.3,507.4z"/>
		
			<rect x="266.7" y="520.7" transform="matrix(0.9808 0.1951 -0.1951 0.9808 109.9962 -68.8397)" fill="#C6D6A6" width="275.7" height="6.7"/>
		<path fill="#39454D" d="M340,518.2l122.9,24.5c2-1.4,3.4-3.6,3.9-6.2c0.5-2.5,0.1-4.9-1.1-6.9L342.6,505L340,518.2z"/>
			<path fill="#FFFFFF" d="M347.3,512.3c0.4-2,2.1-3,4-2.6c1.4,0.3,2.1,1.2,2.4,2.1l-1.3,0.3c-0.2-0.6-0.7-1.1-1.3-1.2
				c-1.2-0.2-2.2,0.5-2.4,1.7c-0.2,1.2,0.4,2.3,1.6,2.5c0.7,0.1,1.3-0.2,1.7-0.6l1.1,0.8c-0.6,0.7-1.6,1.3-3,1
				C348.1,515.9,346.9,514.3,347.3,512.3z"/>
			<path fill="#FFFFFF" d="M357.9,517.7l0.5-2.7l-3-0.6l-0.5,2.7l-1.4-0.3l1.3-6.4l1.4,0.3l-0.5,2.5l3,0.6l0.5-2.5l1.4,0.3l-1.3,6.4
				L357.9,517.7z"/>
			<path fill="#FFFFFF" d="M364.9,519.1l-0.2-1.2l-2.7-0.5l-0.6,1l-1.5-0.3l3.7-5.9l1.7,0.3l1.2,6.8L364.9,519.1z M364.2,513.8
				l-1.5,2.5l2,0.4L364.2,513.8z"/>
			<path fill="#FFFFFF" d="M371.5,520.4l-2.2-4.8l-0.8,4.1l-1.4-0.3l1.3-6.4l1.4,0.3l2.2,4.6l0.8-4l1.4,0.3l-1.3,6.4L371.5,520.4z"
				/>
			<path fill="#FFFFFF" d="M378.5,521.8l-2.2-4.8l-0.8,4.1l-1.4-0.3l1.3-6.4l1.4,0.3l2.2,4.6l0.8-4l1.4,0.3l-1.3,6.4L378.5,521.8z"
				/>
			<path fill="#FFFFFF" d="M381.1,522.4l1.3-6.4l4.5,0.9l-0.2,1.2l-3.1-0.6l-0.3,1.3l3.1,0.6l-0.2,1.2L383,520l-0.3,1.4l3.1,0.6
				l-0.2,1.2L381.1,522.4z"/>
			<path fill="#FFFFFF" d="M386.8,523.5l1.3-6.4l1.4,0.3l-1,5.2l2.7,0.5l-0.2,1.2L386.8,523.5z"/>
			<path fill="#FFFFFF" d="M394.6,521.7c0.4-1.9,2.1-3,4-2.6c1.9,0.4,3.1,2,2.7,4c-0.4,1.9-2.1,3-4,2.6
				C395.3,525.3,394.2,523.6,394.6,521.7z M399.8,522.8c0.2-1.2-0.3-2.2-1.5-2.5c-1.2-0.2-2.1,0.5-2.3,1.7c-0.2,1.2,0.3,2.2,1.5,2.5
				C398.6,524.7,399.6,524,399.8,522.8z"/>
			<path fill="#FFFFFF" d="M401.6,526.4l1.3-6.4l3,0.6c1.4,0.3,2,1.4,1.7,2.5c-0.2,1.1-1.2,1.9-2.5,1.6l-1.6-0.3l-0.4,2.3
				L401.6,526.4z M406.1,522.8c0.1-0.5-0.2-0.9-0.8-1l-1.4-0.3l-0.3,1.7l1.4,0.3C405.6,523.6,406,523.4,406.1,522.8z"/>
			<path fill="#FFFFFF" d="M409,527.9l1-5.2l-1.9-0.4l0.2-1.2l5.1,1l-0.2,1.2l-1.9-0.4l-1,5.2L409,527.9z"/>
			<path fill="#FFFFFF" d="M413,528.7l1.3-6.4l1.4,0.3l-1.3,6.4L413,528.7z"/>
			<path fill="#FFFFFF" d="M421.2,530.3l0.9-4.5l-2.7,4.1l-0.6-0.1l-0.9-4.8l-0.9,4.5l-1.4-0.3l1.3-6.4l1.9,0.4l0.8,4.2l2.3-3.5
				l1.9,0.4l-1.3,6.4L421.2,530.3z"/>
			<path fill="#FFFFFF" d="M423.9,530.9l1.3-6.4l1.4,0.3l-1.3,6.4L423.9,530.9z"/>
			<path fill="#FFFFFF" d="M426.2,530.4l0.9-0.9c0.4,0.6,1,1.1,1.9,1.3c0.7,0.1,1.2-0.1,1.2-0.5c0.2-1.1-3.6-1.1-3.1-3.5
				c0.2-1.1,1.3-1.8,2.8-1.5c1,0.2,1.8,0.7,2.3,1.4l-1,0.8c-0.4-0.6-1.1-0.9-1.7-1.1c-0.6-0.1-1,0.1-1,0.5c-0.2,1,3.6,1.1,3.1,3.4
				c-0.2,1.2-1.2,1.9-3,1.5C427.5,531.7,426.7,531.1,426.2,530.4z"/>
			<path fill="#FFFFFF" d="M436.5,533.4l-0.2-1.2l-2.7-0.5l-0.6,1l-1.5-0.3l3.7-5.9l1.7,0.3l1.2,6.8L436.5,533.4z M435.8,528
				l-1.5,2.5l2,0.4L435.8,528z"/>
			<path fill="#FFFFFF" d="M439.4,534l1-5.2l-1.9-0.4l0.2-1.2l5.1,1l-0.2,1.2l-1.9-0.4l-1,5.2L439.4,534z"/>
			<path fill="#FFFFFF" d="M443.4,534.7l1.3-6.4l1.4,0.3l-1.3,6.4L443.4,534.7z"/>
			<path fill="#FFFFFF" d="M446.4,532c0.4-1.9,2.1-3,4-2.6c1.9,0.4,3.1,2,2.7,4c-0.4,1.9-2.1,3-4,2.6
				C447.1,535.6,446,533.9,446.4,532z M451.6,533.1c0.2-1.2-0.3-2.2-1.5-2.5c-1.2-0.2-2.1,0.5-2.3,1.7c-0.2,1.2,0.3,2.2,1.5,2.5
				C450.4,535,451.4,534.3,451.6,533.1z"/>
			<path fill="#FFFFFF" d="M457.7,537.6l-2.2-4.8l-0.8,4.1l-1.4-0.3l1.3-6.4l1.4,0.3l2.2,4.6l0.8-4l1.4,0.3l-1.3,6.4L457.7,537.6z"
				/>
		</g>
	</g>
</g>
</svg>
